{
  "plugins": [
    ["@babel/plugin-transform-runtime",
      {
        "absoluteRuntime": false,
        "corejs": false,
        "helpers": true,
        "regenerator": true,
        "version": "7.0.0-beta.0"
      }
    ],
    ["module-resolver",
      {
        "root": ["./src"],
        "alias": {
          "server": "./src",
          "controllers": "./src/controllers",
          "entities": "./src/entities",
          "routes": "./src/routes",
          "utils": "./src/utils",
          "test": "../test/"
        }
      }
    ]
  ],
  "presets": [
    "@babel/preset-typescript",
    "@babel/preset-env"
  ]
}
